<?xml version="1.0" standalone="no"?>
<!DOCTYPE svg PUBLIC "-//W3C//DTD SVG 20010904//EN"
 "http://www.w3.org/TR/2001/REC-SVG-20010904/DTD/svg10.dtd">
<svg version="1.0" xmlns="http://www.w3.org/2000/svg"
 width="559.000000pt" height="559.000000pt" viewBox="0 0 559.000000 559.000000"
 preserveAspectRatio="xMidYMid meet">
<metadata>
Created by potrace 1.14, written by Peter Selinger 2001-2017
</metadata>
<g transform="translate(0.000000,559.000000) scale(0.100000,-0.100000)"
fill="#000000" stroke="none">
<path d="M510 5381 c0 -5 7 -14 16 -22 8 -7 22 -26 30 -42 14 -25 14 -31 0
-51 -14 -23 -116 -96 -133 -96 -19 0 -93 -77 -107 -110 -21 -53 -14 -135 17
-197 44 -85 149 -175 244 -208 1 0 -2 -18 -8 -40 -5 -22 -12 -49 -14 -60 -3
-11 -8 -69 -11 -130 -3 -60 -7 -116 -9 -122 -3 -7 0 -13 5 -13 6 0 6 -9 0 -24
-5 -13 -6 -26 -3 -30 6 -5 7 -131 1 -156 -1 -8 -22 -53 -45 -100 -50 -101 -66
-139 -68 -162 -2 -10 -4 -21 -5 -25 -1 -5 -1 -12 0 -18 1 -5 3 -27 5 -48 2
-21 9 -45 15 -53 7 -7 10 -14 6 -14 -20 0 68 -110 110 -136 16 -10 31 -21 34
-24 10 -10 121 -60 135 -60 20 0 25 -27 19 -100 -6 -76 -6 -74 -1 -207 4 -97
6 -105 44 -170 22 -37 47 -87 57 -111 l16 -43 -29 -37 c-28 -36 -56 -101 -47
-110 3 -2 -6 -22 -20 -43 -13 -21 -24 -42 -24 -46 0 -5 -22 -22 -49 -40 -39
-25 -52 -41 -65 -79 -20 -60 -20 -98 -1 -118 24 -23 -3 -67 -53 -89 -22 -10
-56 -35 -75 -57 -29 -32 -35 -44 -31 -72 5 -35 5 -35 53 -141 17 -37 31 -69
31 -71 0 -2 10 -25 22 -52 12 -27 22 -51 23 -54 1 -10 58 -94 74 -110 9 -9 33
-26 53 -38 35 -20 40 -20 73 -7 38 16 115 20 115 6 0 -5 27 -38 61 -74 33 -36
75 -85 94 -110 70 -92 112 -107 280 -103 134 3 136 3 213 -30 42 -19 82 -41
87 -50 6 -9 22 -35 37 -58 15 -23 29 -55 32 -71 10 -52 25 -149 29 -185 12
-102 65 -208 122 -246 14 -9 25 -21 25 -28 0 -6 20 -52 45 -102 57 -117 99
-155 261 -234 226 -111 287 -117 474 -48 57 21 190 107 266 172 39 34 111 88
159 121 48 33 130 92 181 132 51 39 101 76 111 81 28 15 67 6 151 -33 112 -54
161 -73 315 -120 121 -38 147 -43 220 -40 57 1 96 8 129 23 58 26 129 98 153
155 10 23 31 70 47 103 15 34 28 65 28 69 0 4 6 21 14 38 12 28 35 92 42 122
30 117 43 171 54 225 16 80 33 107 78 125 19 8 48 29 66 46 40 39 158 96 219
104 29 5 65 3 93 -5 41 -12 47 -11 67 7 12 11 46 25 74 31 80 18 128 54 163
125 37 74 40 149 10 252 -12 39 -22 75 -23 80 -1 6 -5 15 -8 20 -29 48 -53
204 -35 222 6 7 -19 56 -42 84 -9 10 -19 38 -22 61 -6 50 -38 77 -99 85 l-43
6 6 59 c3 32 8 63 12 69 3 5 7 20 9 32 7 50 75 199 100 218 14 11 25 26 25 33
0 7 11 18 24 24 25 11 29 33 9 53 -17 17 -197 8 -219 -12 -11 -9 -35 -22 -54
-29 -19 -7 -70 -30 -113 -52 -43 -21 -80 -38 -82 -38 -3 0 -5 15 -5 33 0 34
-21 112 -40 147 -8 15 -18 20 -31 17 -24 -7 -24 -2 4 36 19 25 68 132 73 157
1 5 17 81 19 90 26 111 22 343 -7 362 -7 4 -24 6 -38 3 -14 -2 -42 -7 -63 -10
-21 -3 -46 -9 -55 -14 -9 -5 -21 -10 -27 -11 -29 -7 -117 -54 -168 -90 l-59
-40 -30 25 c-33 28 -75 32 -104 10 -10 -8 -25 -15 -33 -15 -18 0 -40 -30 -41
-53 0 -26 -49 -69 -128 -113 -37 -21 -73 -44 -80 -51 -18 -17 -21 -16 -18 5 2
9 -1 19 -5 22 -5 3 -10 15 -12 25 -8 43 -56 144 -83 176 -8 8 -14 20 -14 26 0
6 -3 13 -8 15 -4 2 -23 23 -42 48 -85 109 -196 201 -274 224 -68 21 -178 8
-220 -25 l-24 -19 -21 29 c-12 16 -21 31 -21 34 0 2 18 7 40 11 58 9 141 48
170 80 14 15 32 35 41 44 22 23 53 108 44 121 -3 6 -2 11 3 11 12 0 -5 96 -25
134 -21 41 -69 95 -124 141 -30 24 -146 95 -156 95 -13 0 -68 48 -62 54 3 3
28 2 55 -3 28 -4 57 -4 65 -1 90 42 114 58 135 92 46 73 34 178 -19 159 -12
-4 -31 -6 -42 -5 -128 12 -160 12 -190 0 -50 -21 -84 -73 -89 -137 -3 -30 -6
-67 -8 -84 -2 -17 3 -38 12 -48 23 -30 64 -67 72 -67 11 0 125 -69 142 -86 9
-8 16 -13 16 -10 0 3 20 -15 45 -39 44 -44 75 -111 75 -161 0 -14 -10 -47 -21
-74 -18 -42 -29 -54 -73 -75 -43 -21 -62 -24 -118 -21 -36 2 -74 9 -84 14 -57
28 -90 46 -94 51 -3 3 -21 14 -41 24 -20 10 -48 30 -62 43 -27 24 -128 50
-148 38 -5 -3 -9 -2 -9 3 0 4 -15 8 -33 9 -34 1 -116 11 -151 19 -12 2 -37 7
-56 10 -19 2 -47 7 -62 10 -16 3 -38 7 -50 9 -13 2 -43 10 -68 17 -25 7 -49
14 -55 15 -56 15 -282 121 -292 137 -3 4 4 17 16 28 30 28 28 82 -3 102 -13 9
-35 19 -49 22 l-25 7 31 61 c29 56 32 71 32 147 -1 81 -3 88 -37 140 -20 30
-57 76 -81 102 -76 77 -89 117 -63 179 17 40 6 72 -22 62 -31 -11 -74 -57 -94
-101 -31 -69 -32 -127 -3 -184 33 -66 38 -111 15 -130 -44 -38 -68 -39 -190
-4 -30 9 -69 16 -86 16 -17 0 -34 3 -38 7 -16 16 -146 30 -271 31 -109 0 -141
-4 -200 -24 -61 -20 -102 -24 -211 -24 -11 0 -30 9 -42 20 -24 23 -21 42 18
115 35 65 39 131 10 190 -32 67 -71 95 -131 95 -27 0 -49 -4 -49 -9z m3040
-1571 c0 -5 -2 -10 -4 -10 -3 0 -8 5 -11 10 -3 6 -1 10 4 10 6 0 11 -4 11 -10z
m0 -40 c0 -5 -5 -10 -11 -10 -5 0 -7 5 -4 10 3 6 8 10 11 10 2 0 4 -4 4 -10z
m75 -79 c-9 -8 -36 -10 -30 -2 2 4 11 8 20 8 8 0 13 -3 10 -6z"/>
</g>
</svg>
